# Blender MTL File: 'None'
# Material Count: 1

newmtl DefaultMaterial.003
Ns 84.313725
Ka 0.000000 0.000000 0.000000
Kd 0.020199 0.539077 0.011779
Ks 0.969922 0.856458 0.856458
Ni 1.000000
d 1.000000
illum 2
